[gd_scene load_steps=5 format=2]

[ext_resource path="res://assets/colonist.png" type="Texture" id=1]
[ext_resource path="res://src/Colonist.gd" type="Script" id=2]

[sub_resource type="SpriteFrames" id=1]
animations = [ {
"frames": [ ExtResource( 1 ) ],
"loop": true,
"name": "default",
"speed": 5.0
} ]

[sub_resource type="RectangleShape2D" id=2]
extents = Vector2( 19.5, 28 )

[node name="Colonist" type="KinematicBody2D"]
collision_layer = 2
collision_mask = 2
script = ExtResource( 2 )

[node name="AnimatedSprite" type="AnimatedSprite" parent="."]
frames = SubResource( 1 )
speed_scale = 0.0

[node name="TreeBeingCutDown" type="Timer" parent="."]
wait_time = 2.0
one_shot = true

[node name="CollisionShape2D" type="CollisionShape2D" parent="."]
position = Vector2( -3.5, -1 )
shape = SubResource( 2 )

[connection signal="timeout" from="TreeBeingCutDown" to="." method="_on_TreeBeingCutDown_timeout"]
