[gd_scene load_steps=3 format=2]

[ext_resource path="res://src/Music.gd" type="Script" id=1]
[ext_resource path="res://assets/audio/music.ogg" type="AudioStream" id=2]

[node name="Node" type="Node"]
script = ExtResource( 1 )

[node name="Music" type="AudioStreamPlayer" parent="."]
stream = ExtResource( 2 )
